\relax 
\@writefile{toc}{\contentsline {section}{\numberline {1}Sorting Algorithms analysed:}{1}}
\@writefile{toc}{\contentsline {subsection}{\numberline {1.1}Introduction}{1}}
\@writefile{toc}{\contentsline {subsection}{\numberline {1.2}Serial Quick Sort Implementation}{1}}
\@writefile{toc}{\contentsline {subsection}{\numberline {1.3}center}{1}}
\@writefile{toc}{\contentsline {subsection}{\numberline {1.4}Parallel Quick Sort Implementation}{2}}
