\relax 
\@writefile{toc}{\contentsline {section}{\numberline {1}Introduction to False Sharing}{1}}
\@writefile{toc}{\contentsline {subsection}{\numberline {1.1}Introduction}{1}}
\@writefile{toc}{\contentsline {paragraph}{The aim}{1}}
\@writefile{toc}{\contentsline {subsection}{\numberline {1.2}Description of the Algorithms}{1}}
\@writefile{toc}{\contentsline {section}{\numberline {2}Comparisons of the two implementations:}{1}}
\@writefile{toc}{\contentsline {subsection}{\numberline {2.1}Thread Count vs. Number size}{1}}
\@writefile{lot}{\contentsline {table}{\numberline {1}{\ignorespaces  Table values in seconds\em  {(s)}\relax }}{1}}
\@writefile{toc}{\contentsline {section}{\numberline {3}Conclusion}{2}}
\@writefile{toc}{\contentsline {subsection}{\numberline {3.1}General}{2}}
\@writefile{toc}{\contentsline {subsection}{\numberline {3.2}Version 1}{2}}
\@writefile{toc}{\contentsline {subsection}{\numberline {3.3}Version 2}{2}}
