\relax 
\@writefile{toc}{\contentsline {section}{\numberline {1}Introduction}{1}}
\@writefile{toc}{\contentsline {subsection}{\numberline {1.1}The System}{1}}
\@writefile{toc}{\contentsline {subsection}{\numberline {1.2}Problem Statement}{1}}
\@writefile{toc}{\contentsline {section}{\numberline {2}Design \& Implementation}{1}}
\@writefile{toc}{\contentsline {subsection}{\numberline {2.1}The Algorithm}{1}}
\@writefile{toc}{\contentsline {subsubsection}{\numberline {2.1.1}The Evaluation Function}{2}}
\@writefile{toc}{\contentsline {subsubsection}{\numberline {2.1.2}NegaMax}{2}}
\@writefile{toc}{\contentsline {subsubsection}{\numberline {2.1.3}Alpha-Beta Pruning}{2}}
\@writefile{toc}{\contentsline {subsection}{\numberline {2.2}Parallelism of the algorithm}{3}}
\@writefile{toc}{\contentsline {section}{\numberline {3}Testing}{3}}
\@writefile{toc}{\contentsline {section}{\numberline {4}Results \& Analysis}{4}}
\@writefile{lof}{\contentsline {figure}{\numberline {1}{\ignorespaces Comparison of execution times}}{4}}
\newlabel{comparison}{{1}{4}}
\@writefile{lof}{\contentsline {figure}{\numberline {2}{\ignorespaces Speedup over incrementing depths}}{5}}
\newlabel{speedup}{{2}{5}}
\@writefile{toc}{\contentsline {section}{\numberline {5}Conclusion}{5}}
